%YAML 1.1
%TAG !u! tag:unity3d.com,2011:
--- !u!114 &11400000
MonoBehaviour:
  m_ObjectHideFlags: 0
  m_CorrespondingSourceObject: {fileID: 0}
  m_PrefabInstance: {fileID: 0}
  m_PrefabAsset: {fileID: 0}
  m_GameObject: {fileID: 0}
  m_Enabled: 1
  m_EditorHideFlags: 0
  m_Script: {fileID: 11500000, guid: 4398a624442b14b4ba942146f5d69296, type: 3}
  m_Name: Capsule_GeometryObjectData 2
  m_EditorClassIdentifier: 
  ClicksData:
  - {fileID: 11400000, guid: a0a1a059d74a0b24387d8356c224f3c5, type: 2}
  - {fileID: 11400000, guid: bda6b6df32c43904980819fdeb666311, type: 2}
