%YAML 1.1
%TAG !u! tag:unity3d.com,2011:
--- !u!114 &11400000
MonoBehaviour:
  m_ObjectHideFlags: 0
  m_CorrespondingSourceObject: {fileID: 0}
  m_PrefabInstance: {fileID: 0}
  m_PrefabAsset: {fileID: 0}
  m_GameObject: {fileID: 0}
  m_Enabled: 1
  m_EditorHideFlags: 0
  m_Script: {fileID: 11500000, guid: 4398a624442b14b4ba942146f5d69296, type: 3}
  m_Name: Cube_GeometryObjectData
  m_EditorClassIdentifier: 
  ClicksData:
  - {fileID: 11400000, guid: 4470b4574be11054cb49bf7150078dff, type: 2}
  - {fileID: 11400000, guid: 91814026d2d083243b5559af2579036d, type: 2}
