%YAML 1.1
%TAG !u! tag:unity3d.com,2011:
--- !u!114 &11400000
MonoBehaviour:
  m_ObjectHideFlags: 0
  m_CorrespondingSourceObject: {fileID: 0}
  m_PrefabInstance: {fileID: 0}
  m_PrefabAsset: {fileID: 0}
  m_GameObject: {fileID: 0}
  m_Enabled: 1
  m_EditorHideFlags: 0
  m_Script: {fileID: 11500000, guid: 5bf9cdde5d20f7243b5f54691da935aa, type: 3}
  m_Name: Sphere_ClickColorData 2
  m_EditorClassIdentifier: 
  ObjectType: Sphere
  MinClicksCount: 2
  MaxClicksCount: 6
  Color: {r: 0.77254903, g: 0.34117645, b: 0.72473145, a: 0}
